{
	"id": "04d6af58-bb78-401e-86ce-a2f6c041ebe9",
	"name": "markbook",
	"values": [
		{
			"key": "markbook_address",
			"value": "https://localhost:44313",
			"enabled": true
		}
	],
	"_postman_variable_scope": "environment",
	"_postman_exported_at": "2020-10-04T16:03:04.176Z",
	"_postman_exported_using": "Postman/7.33.1"
}